%YAML 1.1
%TAG !u! tag:unity3d.com,2011:
--- !u!114 &11400000
MonoBehaviour:
  m_ObjectHideFlags: 0
  m_PrefabParentObject: {fileID: 0}
  m_PrefabInternal: {fileID: 0}
  m_GameObject: {fileID: 0}
  m_Enabled: 1
  m_EditorHideFlags: 0
  m_Script: {fileID: 11500000, guid: 195054ea41dfb414a8c20d4f273ef49b, type: 3}
  m_Name: Mountains
  m_EditorClassIdentifier: 
  bcg: {fileID: 21300000, guid: 119cd717fbb26e74dac29e3731b467d5, type: 3}
  _missionName: Mountains
  _missionLength: 5
  _cardsLib: {fileID: 11400000, guid: 04d62da7f1ddcf84e8d3eed9f66cd049, type: 2}
  populationGain: 1500
  populaitonLoss: 1500
