%YAML 1.1
%TAG !u! tag:unity3d.com,2011:
--- !u!114 &11400000
MonoBehaviour:
  m_ObjectHideFlags: 0
  m_PrefabParentObject: {fileID: 0}
  m_PrefabInternal: {fileID: 0}
  m_GameObject: {fileID: 0}
  m_Enabled: 1
  m_EditorHideFlags: 0
  m_Script: {fileID: 11500000, guid: 195054ea41dfb414a8c20d4f273ef49b, type: 3}
  m_Name: Savannah
  m_EditorClassIdentifier: 
  bcg: {fileID: 21300000, guid: 809997e5bd716944a87ee204b2a6ac41, type: 3}
  _missionName: Savannah
  _missionLength: 3
  _cardsLib: {fileID: 11400000, guid: 2450d845d3517ae46b1edeba5207db43, type: 2}
  populationGain: 500
  populaitonLoss: 500
