%YAML 1.1
%TAG !u! tag:unity3d.com,2011:
--- !u!114 &11400000
MonoBehaviour:
  m_ObjectHideFlags: 0
  m_PrefabParentObject: {fileID: 0}
  m_PrefabInternal: {fileID: 0}
  m_GameObject: {fileID: 0}
  m_Enabled: 1
  m_EditorHideFlags: 0
  m_Script: {fileID: 11500000, guid: 195054ea41dfb414a8c20d4f273ef49b, type: 3}
  m_Name: Tundra
  m_EditorClassIdentifier: 
  bcg: {fileID: 21300000, guid: bb96ff401c60fee4691c7ff76aa43f0d, type: 3}
  _missionName: Tundra
  _missionLength: 7
  _cardsLib: {fileID: 11400000, guid: 92d495957a393e04f9de3ed094639029, type: 2}
  populationGain: 3000
  populaitonLoss: 3000
