%YAML 1.1
%TAG !u! tag:unity3d.com,2011:
--- !u!114 &11400000
MonoBehaviour:
  m_ObjectHideFlags: 0
  m_PrefabParentObject: {fileID: 0}
  m_PrefabInternal: {fileID: 0}
  m_GameObject: {fileID: 0}
  m_Enabled: 1
  m_EditorHideFlags: 0
  m_Script: {fileID: 11500000, guid: 33c03bfd8d4da4344aa43bd65ded31b6, type: 3}
  m_Name: MountainsSkills
  m_EditorClassIdentifier: 
  skills:
  - {fileID: 11400000, guid: 9ca1f43cd6d6f9344a4d5e12a1761386, type: 2}
  - {fileID: 11400000, guid: 520afd032a4eb4343892680c63dc535d, type: 2}
  - {fileID: 11400000, guid: c8a047f87a99a594fbbc309fbc315615, type: 2}
  - {fileID: 11400000, guid: f992cb9c7d45db64d9932a3c0fe5bbfb, type: 2}
  - {fileID: 11400000, guid: 80ddc9d26223e814abdee429d400d22d, type: 2}
  - {fileID: 11400000, guid: f74e51db5f81d4844931e0fb54ece877, type: 2}
  - {fileID: 11400000, guid: 2d42c01fb6a89ec4aa212a637faf1734, type: 2}
  - {fileID: 11400000, guid: 9af0a87968ce8d442b6cc851dc4ee383, type: 2}
  - {fileID: 11400000, guid: 7bdd5d2bc9a4066478ae87c1a07e7359, type: 2}
